[
  {
    "request": {
      "body": "",
      "headers": {
        "Authorization": "Basic SECRET_KEY",
        "Accept": "application/vnd.api+json;revision=1.1"
      },
      "method": "get",
      "options": [],
      "url": "https://api.balancedpayments.com/api_keys?limit=10&offset=0"
    },
    "response": {
      "body": "{\n  \"meta\": {\n    \"last\": \"/api_keys?limit=10&offset=20\",\n    \"next\": \"/api_keys?limit=10&offset=10\",\n    \"href\": \"/api_keys?limit=10&offset=0\",\n    \"limit\": 10,\n    \"offset\": 0,\n    \"previous\": null,\n    \"total\": 25,\n    \"first\": \"/api_keys?limit=10&offset=0\"\n  },\n  \"links\": {},\n  \"api_keys\": [\n    {\n      \"href\": \"/api_keys/AK2chE2QQV28MiNcuafmV9Wo\",\n      \"created_at\": \"2014-12-05T17:38:02.247866Z\",\n      \"meta\": {},\n      \"id\": \"AK2chE2QQV28MiNcuafmV9Wo\",\n      \"links\": {}\n    },\n    {\n      \"href\": \"/api_keys/AK1S2NqKVr1LdgTe6LqKdtS0\",\n      \"created_at\": \"2014-12-01T09:49:53.079353Z\",\n      \"meta\": {},\n      \"id\": \"AK1S2NqKVr1LdgTe6LqKdtS0\",\n      \"links\": {}\n    },\n    {\n      \"href\": \"/api_keys/AK3NUuTqAyVH59WDbIBA3Tri\",\n      \"created_at\": \"2014-12-01T09:37:20.641732Z\",\n      \"meta\": {},\n      \"id\": \"AK3NUuTqAyVH59WDbIBA3Tri\",\n      \"links\": {}\n    },\n    {\n      \"href\": \"/api_keys/AK7kBisRT8FOfFABrmus5wBO\",\n      \"created_at\": \"2014-12-01T09:26:16.072850Z\",\n      \"meta\": {},\n      \"id\": \"AK7kBisRT8FOfFABrmus5wBO\",\n      \"links\": {}\n    },\n    {\n      \"href\": \"/api_keys/AK66FX9IeJVqH7BjwXNcr0nH\",\n      \"created_at\": \"2014-12-01T09:25:08.567221Z\",\n      \"meta\": {},\n      \"id\": \"AK66FX9IeJVqH7BjwXNcr0nH\",\n      \"links\": {}\n    },\n    {\n      \"href\": \"/api_keys/AK32SDKQXjfzc5vzbGTDPeyk\",\n      \"created_at\": \"2014-12-01T09:15:10.306415Z\",\n      \"meta\": {},\n      \"id\": \"AK32SDKQXjfzc5vzbGTDPeyk\",\n      \"links\": {}\n    },\n    {\n      \"href\": \"/api_keys/AK1HSGD7iyu0zymrZwm3ksEg\",\n      \"created_at\": \"2014-12-01T09:13:56.508430Z\",\n      \"meta\": {},\n      \"id\": \"AK1HSGD7iyu0zymrZwm3ksEg\",\n      \"links\": {}\n    },\n    {\n      \"href\": \"/api_keys/AK54gCW8gVzUfHBsSqYT21oh\",\n      \"created_at\": \"2014-12-01T09:09:52.286210Z\",\n      \"meta\": {},\n      \"id\": \"AK54gCW8gVzUfHBsSqYT21oh\",\n      \"links\": {}\n    },\n    {\n      \"href\": \"/api_keys/AK4uYFyt2ry3VWtlvLth4UFy\",\n      \"created_at\": \"2014-12-01T09:09:20.906118Z\",\n      \"meta\": {},\n      \"id\": \"AK4uYFyt2ry3VWtlvLth4UFy\",\n      \"links\": {}\n    },\n    {\n      \"href\": \"/api_keys/AK3gXQZs3X1rQ0wfg27GjSw5\",\n      \"created_at\": \"2014-12-01T09:08:13.323808Z\",\n      \"meta\": {},\n      \"id\": \"AK3gXQZs3X1rQ0wfg27GjSw5\",\n      \"links\": {}\n    }\n  ]\n}",
      "headers": {
        "Content-Type": "application/json",
        "Content-Length": "2221",
        "Connection": "keep-alive"
      },
      "status_code": 200,
      "type": "ok"
    }
  }
]