[
  {
    "request": {
      "body": "",
      "headers": {
        "Authorization": "Basic SECRET_KEY",
        "Accept": "application/vnd.api+json;revision=1.1"
      },
      "method": "get",
      "options": [],
      "url": "https://api.balancedpayments.com/bank_accounts"
    },
    "response": {
      "body": "{\n  \"bank_accounts\": [\n    {\n      \"routing_number\": \"021000021\",\n      \"bank_name\": \"JPMORGAN CHASE BANK\",\n      \"account_type\": \"checking\",\n      \"name\": \"Jon Doe\",\n      \"links\": {\n        \"customer\": null,\n        \"bank_account_verification\": null\n      },\n      \"can_credit\": true,\n      \"created_at\": \"2014-12-01T09:59:58.715312Z\",\n      \"fingerprint\": \"2ef53fa3f76e47c5930f77fe0a59aa103b5abfd5622f08305b786808ec574a1e\",\n      \"updated_at\": \"2014-12-01T09:59:58.715313Z\",\n      \"href\": \"/bank_accounts/BA548iQji5hZ4FyckgjLTcTC\",\n      \"meta\": {},\n      \"account_number\": \"xxxxxx0002\",\n      \"address\": {\n        \"city\": null,\n        \"line2\": null,\n        \"line1\": null,\n        \"state\": null,\n        \"postal_code\": null,\n        \"country_code\": null\n      },\n      \"can_debit\": false,\n      \"id\": \"BA548iQji5hZ4FyckgjLTcTC\"\n    },\n    {\n      \"routing_number\": \"021000021\",\n      \"bank_name\": \"JPMORGAN CHASE BANK\",\n      \"account_type\": \"checking\",\n      \"name\": \"Jon Doe\",\n      \"links\": {\n        \"customer\": \"CU3IumZFa8UKn8OdwZ8k5qEg\",\n        \"bank_account_verification\": null\n      },\n      \"can_credit\": true,\n      \"created_at\": \"2014-11-23T15:58:43.658986Z\",\n      \"fingerprint\": \"2ef53fa3f76e47c5930f77fe0a59aa103b5abfd5622f08305b786808ec574a1e\",\n      \"updated_at\": \"2014-11-23T15:58:43.940357Z\",\n      \"href\": \"/bank_accounts/BA3Jwzw9bZWkaMjGXggc7tVS\",\n      \"meta\": {},\n      \"account_number\": \"xxxxxx0002\",\n      \"address\": {\n        \"city\": null,\n        \"line2\": null,\n        \"line1\": null,\n        \"state\": null,\n        \"postal_code\": null,\n        \"country_code\": null\n      },\n      \"can_debit\": false,\n      \"id\": \"BA3Jwzw9bZWkaMjGXggc7tVS\"\n    },\n    {\n      \"routing_number\": \"021000021\",\n      \"bank_name\": \"JPMORGAN CHASE BANK\",\n      \"account_type\": \"checking\",\n      \"name\": \"Jon Doe\",\n      \"links\": {\n        \"customer\": null,\n        \"bank_account_verification\": null\n      },\n      \"can_credit\": true,\n      \"created_at\": \"2014-11-23T15:55:14.044986Z\",\n      \"fingerprint\": \"2ef53fa3f76e47c5930f77fe0a59aa103b5abfd5622f08305b786808ec574a1e\",\n      \"updated_at\": \"2014-11-23T15:55:14.044987Z\",\n      \"href\": \"/bank_accounts/BA7IPLb2RQrwV2gcYLPplW8B\",\n      \"meta\": {},\n      \"account_number\": \"xxxxxx0002\",\n      \"address\": {\n        \"city\": null,\n        \"line2\": null,\n        \"line1\": null,\n        \"state\": null,\n        \"postal_code\": null,\n        \"country_code\": null\n      },\n      \"can_debit\": false,\n      \"id\": \"BA7IPLb2RQrwV2gcYLPplW8B\"\n    },\n    {\n      \"routing_number\": \"021000021\",\n      \"bank_name\": \"JPMORGAN CHASE BANK\",\n      \"account_type\": \"checking\",\n      \"name\": \"Jon Doe\",\n      \"links\": {\n        \"customer\": null,\n        \"bank_account_verification\": null\n      },\n      \"can_credit\": true,\n      \"created_at\": \"2014-11-23T15:55:11.391102Z\",\n      \"fingerprint\": \"2ef53fa3f76e47c5930f77fe0a59aa103b5abfd5622f08305b786808ec574a1e\",\n      \"updated_at\": \"2014-11-23T15:55:11.391103Z\",\n      \"href\": \"/bank_accounts/BA7FQLS6EWIcZWUsdx5jSGZT\",\n      \"meta\": {},\n      \"account_number\": \"xxxxxx0002\",\n      \"address\": {\n        \"city\": null,\n        \"line2\": null,\n        \"line1\": null,\n        \"state\": null,\n        \"postal_code\": null,\n        \"country_code\": null\n      },\n      \"can_debit\": false,\n      \"id\": \"BA7FQLS6EWIcZWUsdx5jSGZT\"\n    },\n    {\n      \"routing_number\": \"021000021\",\n      \"bank_name\": \"JPMORGAN CHASE BANK\",\n      \"account_type\": \"checking\",\n      \"name\": \"Jon Doe\",\n      \"links\": {\n        \"customer\": null,\n        \"bank_account_verification\": null\n      },\n      \"can_credit\": true,\n      \"created_at\": \"2014-11-23T15:54:40.353206Z\",\n      \"fingerprint\": \"2ef53fa3f76e47c5930f77fe0a59aa103b5abfd5622f08305b786808ec574a1e\",\n      \"updated_at\": \"2014-11-23T15:54:40.353207Z\",\n      \"href\": \"/bank_accounts/BA76WHPdghTwt7ymOcelzzHi\",\n      \"meta\": {},\n      \"account_number\": \"xxxxxx0002\",\n      \"address\": {\n        \"city\": null,\n        \"line2\": null,\n        \"line1\": null,\n        \"state\": null,\n        \"postal_code\": null,\n        \"country_code\": null\n      },\n      \"can_debit\": false,\n      \"id\": \"BA76WHPdghTwt7ymOcelzzHi\"\n    },\n    {\n      \"routing_number\": \"021000021\",\n      \"bank_name\": \"JPMORGAN CHASE BANK\",\n      \"account_type\": \"checking\",\n      \"name\": \"Jon Doe\",\n      \"links\": {\n        \"customer\": null,\n        \"bank_account_verification\": null\n      },\n      \"can_credit\": true,\n      \"created_at\": \"2014-11-23T15:54:39.973060Z\",\n      \"fingerprint\": \"2ef53fa3f76e47c5930f77fe0a59aa103b5abfd5622f08305b786808ec574a1e\",\n      \"updated_at\": \"2014-11-23T15:54:39.973061Z\",\n      \"href\": \"/bank_accounts/BA76vTnHelObfd8CczWOwIgl\",\n      \"meta\": {},\n      \"account_number\": \"xxxxxx0002\",\n      \"address\": {\n        \"city\": null,\n        \"line2\": null,\n        \"line1\": null,\n        \"state\": null,\n        \"postal_code\": null,\n        \"country_code\": null\n      },\n      \"can_debit\": false,\n      \"id\": \"BA76vTnHelObfd8CczWOwIgl\"\n    },\n    {\n      \"routing_number\": \"021000021\",\n      \"bank_name\": \"JPMORGAN CHASE BANK\",\n      \"account_type\": \"checking\",\n      \"name\": \"Jon Doe\",\n      \"links\": {\n        \"customer\": null,\n        \"bank_account_verification\": null\n      },\n      \"can_credit\": true,\n      \"created_at\": \"2014-11-23T15:53:53.221899Z\",\n      \"fingerprint\": \"2ef53fa3f76e47c5930f77fe0a59aa103b5abfd5622f08305b786808ec574a1e\",\n      \"updated_at\": \"2014-11-23T15:53:53.221901Z\",\n      \"href\": \"/bank_accounts/BA6fVIjFvtq0qtuv9N7DhRUp\",\n      \"meta\": {},\n      \"account_number\": \"xxxxxx0002\",\n      \"address\": {\n        \"city\": null,\n        \"line2\": null,\n        \"line1\": null,\n        \"state\": null,\n        \"postal_code\": null,\n        \"country_code\": null\n      },\n      \"can_debit\": false,\n      \"id\": \"BA6fVIjFvtq0qtuv9N7DhRUp\"\n    },\n    {\n      \"routing_number\": \"021000021\",\n      \"bank_name\": \"JPMORGAN CHASE BANK\",\n      \"account_type\": \"checking\",\n      \"name\": \"Jon Doe\",\n      \"links\": {\n        \"customer\": null,\n        \"bank_account_verification\": null\n      },\n      \"can_credit\": true,\n      \"created_at\": \"2014-11-23T15:53:52.504414Z\",\n      \"fingerprint\": \"2ef53fa3f76e47c5930f77fe0a59aa103b5abfd5622f08305b786808ec574a1e\",\n      \"updated_at\": \"2014-11-23T15:53:52.504416Z\",\n      \"href\": \"/bank_accounts/BA6f84lX8O35M9piVlnbyhQA\",\n      \"meta\": {},\n      \"account_number\": \"xxxxxx0002\",\n      \"address\": {\n        \"city\": null,\n        \"line2\": null,\n        \"line1\": null,\n        \"state\": null,\n        \"postal_code\": null,\n        \"country_code\": null\n      },\n      \"can_debit\": false,\n      \"id\": \"BA6f84lX8O35M9piVlnbyhQA\"\n    },\n    {\n      \"routing_number\": \"021000021\",\n      \"bank_name\": \"JPMORGAN CHASE BANK\",\n      \"account_type\": \"checking\",\n      \"name\": \"Jon Doe\",\n      \"links\": {\n        \"customer\": null,\n        \"bank_account_verification\": null\n      },\n      \"can_credit\": true,\n      \"created_at\": \"2014-11-23T15:52:58.825473Z\",\n      \"fingerprint\": \"2ef53fa3f76e47c5930f77fe0a59aa103b5abfd5622f08305b786808ec574a1e\",\n      \"updated_at\": \"2014-11-23T15:52:58.825480Z\",\n      \"href\": \"/bank_accounts/BA5gKJwr37sBY1NQyyjbub9b\",\n      \"meta\": {},\n      \"account_number\": \"xxxxxx0002\",\n      \"address\": {\n        \"city\": null,\n        \"line2\": null,\n        \"line1\": null,\n        \"state\": null,\n        \"postal_code\": null,\n        \"country_code\": null\n      },\n      \"can_debit\": false,\n      \"id\": \"BA5gKJwr37sBY1NQyyjbub9b\"\n    },\n    {\n      \"routing_number\": \"021000021\",\n      \"bank_name\": \"JPMORGAN CHASE BANK\",\n      \"account_type\": \"checking\",\n      \"name\": \"Jon Doe\",\n      \"links\": {\n        \"customer\": null,\n        \"bank_account_verification\": null\n      },\n      \"can_credit\": true,\n      \"created_at\": \"2014-11-23T15:52:57.981420Z\",\n      \"fingerprint\": \"2ef53fa3f76e47c5930f77fe0a59aa103b5abfd5622f08305b786808ec574a1e\",\n      \"updated_at\": \"2014-11-23T15:52:57.981422Z\",\n      \"href\": \"/bank_accounts/BA5fNR7GoCpwlHQptqcQUU9T\",\n      \"meta\": {},\n      \"account_number\": \"xxxxxx0002\",\n      \"address\": {\n        \"city\": null,\n        \"line2\": null,\n        \"line1\": null,\n        \"state\": null,\n        \"postal_code\": null,\n        \"country_code\": null\n      },\n      \"can_debit\": false,\n      \"id\": \"BA5fNR7GoCpwlHQptqcQUU9T\"\n    }\n  ],\n  \"meta\": {\n    \"last\": \"/bank_accounts?limit=10&offset=60\",\n    \"next\": \"/bank_accounts?limit=10&offset=10\",\n    \"href\": \"/bank_accounts?limit=10&offset=0\",\n    \"limit\": 10,\n    \"offset\": 0,\n    \"previous\": null,\n    \"total\": 64,\n    \"first\": \"/bank_accounts?limit=10&offset=0\"\n  },\n  \"links\": {\n    \"bank_accounts.bank_account_verification\": \"/verifications/{bank_accounts.bank_account_verification}\",\n    \"bank_accounts.credits\": \"/bank_accounts/{bank_accounts.id}/credits\",\n    \"bank_accounts.bank_account_verifications\": \"/bank_accounts/{bank_accounts.id}/verifications\",\n    \"bank_accounts.customer\": \"/customers/{bank_accounts.customer}\",\n    \"bank_accounts.debits\": \"/bank_accounts/{bank_accounts.id}/debits\"\n  }\n}",
      "headers": {
        "Content-Type": "application/json",
        "Date": "Mon, 01 Dec 2014 10:05:24 GMT",
        "Server": "ngx_openresty/1.2.6.3",
        "X-Balanced-Revision": "1.1",
        "X-Balanced-Software-Build": "1.10.15",
        "Content-Length": "8941",
        "Connection": "keep-alive"
      },
      "status_code": 200,
      "type": "ok"
    }
  }
]