[
  {
    "request": {
      "body": "",
      "headers": {
        "Authorization": "Basic SECRET_KEY",
        "Accept": "application/vnd.api+json;revision=1.1"
      },
      "method": "get",
      "options": [],
      "url": "https://api.balancedpayments.com/cards"
    },
    "response": {
      "body": "{\n  \"cards\": [\n    {\n      \"links\": {\n        \"customer\": null\n      },\n      \"fingerprint\": \"2a53c2329b657f896f49e5fe8b9bfe0a70d24522665ac31d57c73cda9ef9b6a8\",\n      \"cvv_result\": \"Match\",\n      \"number\": \"xxxxxxxxxxxx1111\",\n      \"avs_postal_match\": null,\n      \"expiration_month\": 12,\n      \"meta\": {},\n      \"id\": \"CC5fUt65v4XANSTFFMIFXMAl\",\n      \"category\": \"other\",\n      \"type\": \"credit\",\n      \"cvv_match\": \"yes\",\n      \"bank_name\": \"JPMORGAN CHASE BANK, N.A.\",\n      \"avs_street_match\": null,\n      \"brand\": \"Visa\",\n      \"updated_at\": \"2014-11-23T15:52:58.075715Z\",\n      \"address\": {\n        \"city\": null,\n        \"line2\": null,\n        \"line1\": null,\n        \"state\": null,\n        \"postal_code\": null,\n        \"country_code\": null\n      },\n      \"can_debit\": true,\n      \"name\": null,\n      \"expiration_year\": 2016,\n      \"cvv\": \"xxx\",\n      \"is_verified\": true,\n      \"avs_result\": null,\n      \"can_credit\": false,\n      \"href\": \"/cards/CC5fUt65v4XANSTFFMIFXMAl\",\n      \"created_at\": \"2014-11-23T15:52:58.075713Z\"\n    },\n    {\n      \"links\": {\n        \"customer\": null\n      },\n      \"fingerprint\": \"2a53c2329b657f896f49e5fe8b9bfe0a70d24522665ac31d57c73cda9ef9b6a8\",\n      \"cvv_result\": \"Match\",\n      \"number\": \"xxxxxxxxxxxx1111\",\n      \"avs_postal_match\": null,\n      \"expiration_month\": 12,\n      \"meta\": {},\n      \"id\": \"CC505Iq3bJ3GqWflLLeOsvWU\",\n      \"category\": \"other\",\n      \"type\": \"credit\",\n      \"cvv_match\": \"yes\",\n      \"bank_name\": \"JPMORGAN CHASE BANK, N.A.\",\n      \"avs_street_match\": null,\n      \"brand\": \"Visa\",\n      \"updated_at\": \"2014-11-23T15:52:44.007146Z\",\n      \"address\": {\n        \"city\": null,\n        \"line2\": null,\n        \"line1\": null,\n        \"state\": null,\n        \"postal_code\": null,\n        \"country_code\": null\n      },\n      \"can_debit\": true,\n      \"name\": null,\n      \"expiration_year\": 2016,\n      \"cvv\": \"xxx\",\n      \"is_verified\": true,\n      \"avs_result\": null,\n      \"can_credit\": false,\n      \"href\": \"/cards/CC505Iq3bJ3GqWflLLeOsvWU\",\n      \"created_at\": \"2014-11-23T15:52:44.007144Z\"\n    },\n    {\n      \"links\": {\n        \"customer\": null\n      },\n      \"fingerprint\": \"2a53c2329b657f896f49e5fe8b9bfe0a70d24522665ac31d57c73cda9ef9b6a8\",\n      \"cvv_result\": \"Match\",\n      \"number\": \"xxxxxxxxxxxx1111\",\n      \"avs_postal_match\": null,\n      \"expiration_month\": 12,\n      \"meta\": {},\n      \"id\": \"CC3oyL2AQWsI1dQogWmPZq4o\",\n      \"category\": \"other\",\n      \"type\": \"credit\",\n      \"cvv_match\": \"yes\",\n      \"bank_name\": \"JPMORGAN CHASE BANK, N.A.\",\n      \"avs_street_match\": null,\n      \"brand\": \"Visa\",\n      \"updated_at\": \"2014-11-23T15:51:15.510532Z\",\n      \"address\": {\n        \"city\": null,\n        \"line2\": null,\n        \"line1\": null,\n        \"state\": null,\n        \"postal_code\": null,\n        \"country_code\": null\n      },\n      \"can_debit\": true,\n      \"name\": null,\n      \"expiration_year\": 2016,\n      \"cvv\": \"xxx\",\n      \"is_verified\": true,\n      \"avs_result\": null,\n      \"can_credit\": false,\n      \"href\": \"/cards/CC3oyL2AQWsI1dQogWmPZq4o\",\n      \"created_at\": \"2014-11-23T15:51:15.510527Z\"\n    },\n    {\n      \"links\": {\n        \"customer\": null\n      },\n      \"fingerprint\": \"2a53c2329b657f896f49e5fe8b9bfe0a70d24522665ac31d57c73cda9ef9b6a8\",\n      \"cvv_result\": \"Match\",\n      \"number\": \"xxxxxxxxxxxx1111\",\n      \"avs_postal_match\": null,\n      \"expiration_month\": 12,\n      \"meta\": {},\n      \"id\": \"CC1MSRx2jLqkErdfwDgo4LyJ\",\n      \"category\": \"other\",\n      \"type\": \"credit\",\n      \"cvv_match\": \"yes\",\n      \"bank_name\": \"JPMORGAN CHASE BANK, N.A.\",\n      \"avs_street_match\": null,\n      \"brand\": \"Visa\",\n      \"updated_at\": \"2014-11-23T15:49:46.890092Z\",\n      \"address\": {\n        \"city\": null,\n        \"line2\": null,\n        \"line1\": null,\n        \"state\": null,\n        \"postal_code\": null,\n        \"country_code\": null\n      },\n      \"can_debit\": true,\n      \"name\": null,\n      \"expiration_year\": 2016,\n      \"cvv\": \"xxx\",\n      \"is_verified\": true,\n      \"avs_result\": null,\n      \"can_credit\": false,\n      \"href\": \"/cards/CC1MSRx2jLqkErdfwDgo4LyJ\",\n      \"created_at\": \"2014-11-23T15:49:46.890091Z\"\n    },\n    {\n      \"links\": {\n        \"customer\": null\n      },\n      \"fingerprint\": \"2a53c2329b657f896f49e5fe8b9bfe0a70d24522665ac31d57c73cda9ef9b6a8\",\n      \"cvv_result\": \"Match\",\n      \"number\": \"xxxxxxxxxxxx1111\",\n      \"avs_postal_match\": null,\n      \"expiration_month\": 12,\n      \"meta\": {},\n      \"id\": \"CCHcvTUi4ZkCEaezUsOkz1S\",\n      \"category\": \"other\",\n      \"type\": \"credit\",\n      \"cvv_match\": \"yes\",\n      \"bank_name\": \"JPMORGAN CHASE BANK, N.A.\",\n      \"avs_street_match\": null,\n      \"brand\": \"Visa\",\n      \"updated_at\": \"2014-11-23T15:48:46.707552Z\",\n      \"address\": {\n        \"city\": null,\n        \"line2\": null,\n        \"line1\": null,\n        \"state\": null,\n        \"postal_code\": null,\n        \"country_code\": null\n      },\n      \"can_debit\": true,\n      \"name\": null,\n      \"expiration_year\": 2016,\n      \"cvv\": \"xxx\",\n      \"is_verified\": true,\n      \"avs_result\": null,\n      \"can_credit\": false,\n      \"href\": \"/cards/CCHcvTUi4ZkCEaezUsOkz1S\",\n      \"created_at\": \"2014-11-23T15:48:46.707547Z\"\n    },\n    {\n      \"links\": {\n        \"customer\": null\n      },\n      \"fingerprint\": \"2a53c2329b657f896f49e5fe8b9bfe0a70d24522665ac31d57c73cda9ef9b6a8\",\n      \"cvv_result\": \"Match\",\n      \"number\": \"xxxxxxxxxxxx1111\",\n      \"avs_postal_match\": null,\n      \"expiration_month\": 12,\n      \"meta\": {},\n      \"id\": \"CC3a6scDgIFObHw8GANAfM8E\",\n      \"category\": \"other\",\n      \"type\": \"credit\",\n      \"cvv_match\": \"yes\",\n      \"bank_name\": \"JPMORGAN CHASE BANK, N.A.\",\n      \"avs_street_match\": null,\n      \"brand\": \"Visa\",\n      \"updated_at\": \"2014-09-11T18:57:00.233042Z\",\n      \"address\": {\n        \"city\": null,\n        \"line2\": null,\n        \"line1\": null,\n        \"state\": null,\n        \"postal_code\": null,\n        \"country_code\": null\n      },\n      \"can_debit\": true,\n      \"name\": null,\n      \"expiration_year\": 2016,\n      \"cvv\": \"xxx\",\n      \"is_verified\": true,\n      \"avs_result\": null,\n      \"can_credit\": false,\n      \"href\": \"/cards/CC3a6scDgIFObHw8GANAfM8E\",\n      \"created_at\": \"2014-09-11T18:56:58.187898Z\"\n    },\n    {\n      \"links\": {\n        \"customer\": null\n      },\n      \"fingerprint\": \"2a53c2329b657f896f49e5fe8b9bfe0a70d24522665ac31d57c73cda9ef9b6a8\",\n      \"cvv_result\": \"Match\",\n      \"number\": \"xxxxxxxxxxxx1111\",\n      \"avs_postal_match\": null,\n      \"expiration_month\": 12,\n      \"meta\": {},\n      \"id\": \"CCHtpwaM5WwIYF2dxz5YphK\",\n      \"category\": \"other\",\n      \"type\": \"credit\",\n      \"cvv_match\": \"yes\",\n      \"bank_name\": \"JPMORGAN CHASE BANK, N.A.\",\n      \"avs_street_match\": null,\n      \"brand\": \"Visa\",\n      \"updated_at\": \"2014-09-03T17:52:37.861368Z\",\n      \"address\": {\n        \"city\": null,\n        \"line2\": null,\n        \"line1\": null,\n        \"state\": null,\n        \"postal_code\": null,\n        \"country_code\": null\n      },\n      \"can_debit\": true,\n      \"name\": null,\n      \"expiration_year\": 2016,\n      \"cvv\": \"xxx\",\n      \"is_verified\": true,\n      \"avs_result\": null,\n      \"can_credit\": false,\n      \"href\": \"/cards/CCHtpwaM5WwIYF2dxz5YphK\",\n      \"created_at\": \"2014-09-03T17:52:36.773413Z\"\n    },\n    {\n      \"links\": {\n        \"customer\": null\n      },\n      \"fingerprint\": \"2a53c2329b657f896f49e5fe8b9bfe0a70d24522665ac31d57c73cda9ef9b6a8\",\n      \"cvv_result\": \"Match\",\n      \"number\": \"xxxxxxxxxxxx1111\",\n      \"avs_postal_match\": null,\n      \"expiration_month\": 12,\n      \"meta\": {},\n      \"id\": \"CC6SLWsr9fEbdNZS7zZCepaw\",\n      \"category\": \"other\",\n      \"type\": \"credit\",\n      \"cvv_match\": \"yes\",\n      \"bank_name\": \"JPMORGAN CHASE BANK, N.A.\",\n      \"avs_street_match\": null,\n      \"brand\": \"Visa\",\n      \"updated_at\": \"2014-08-28T18:19:46.619986Z\",\n      \"address\": {\n        \"city\": null,\n        \"line2\": null,\n        \"line1\": null,\n        \"state\": null,\n        \"postal_code\": null,\n        \"country_code\": null\n      },\n      \"can_debit\": true,\n      \"name\": null,\n      \"expiration_year\": 2016,\n      \"cvv\": \"xxx\",\n      \"is_verified\": true,\n      \"avs_result\": null,\n      \"can_credit\": false,\n      \"href\": \"/cards/CC6SLWsr9fEbdNZS7zZCepaw\",\n      \"created_at\": \"2014-08-28T18:19:43.509043Z\"\n    },\n    {\n      \"links\": {\n        \"customer\": null\n      },\n      \"fingerprint\": \"2a53c2329b657f896f49e5fe8b9bfe0a70d24522665ac31d57c73cda9ef9b6a8\",\n      \"cvv_result\": \"Match\",\n      \"number\": \"xxxxxxxxxxxx1111\",\n      \"avs_postal_match\": null,\n      \"expiration_month\": 12,\n      \"meta\": {},\n      \"id\": \"CC4aKeCrhuuJOXHrt6FZTGso\",\n      \"category\": \"other\",\n      \"type\": \"credit\",\n      \"cvv_match\": \"yes\",\n      \"bank_name\": \"JPMORGAN CHASE BANK, N.A.\",\n      \"avs_street_match\": null,\n      \"brand\": \"Visa\",\n      \"updated_at\": \"2014-08-28T18:17:15.541710Z\",\n      \"address\": {\n        \"city\": null,\n        \"line2\": null,\n        \"line1\": null,\n        \"state\": null,\n        \"postal_code\": null,\n        \"country_code\": null\n      },\n      \"can_debit\": true,\n      \"name\": null,\n      \"expiration_year\": 2016,\n      \"cvv\": \"xxx\",\n      \"is_verified\": true,\n      \"avs_result\": null,\n      \"can_credit\": false,\n      \"href\": \"/cards/CC4aKeCrhuuJOXHrt6FZTGso\",\n      \"created_at\": \"2014-08-28T18:17:14.114624Z\"\n    },\n    {\n      \"links\": {\n        \"customer\": null\n      },\n      \"fingerprint\": \"2a53c2329b657f896f49e5fe8b9bfe0a70d24522665ac31d57c73cda9ef9b6a8\",\n      \"cvv_result\": \"Match\",\n      \"number\": \"xxxxxxxxxxxx1111\",\n      \"avs_postal_match\": null,\n      \"expiration_month\": 12,\n      \"meta\": {},\n      \"id\": \"CC2EgnBGj2cUQjdQsFm0eHAc\",\n      \"category\": \"other\",\n      \"type\": \"credit\",\n      \"cvv_match\": \"yes\",\n      \"bank_name\": \"JPMORGAN CHASE BANK, N.A.\",\n      \"avs_street_match\": null,\n      \"brand\": \"Visa\",\n      \"updated_at\": \"2014-08-28T18:08:41.298908Z\",\n      \"address\": {\n        \"city\": null,\n        \"line2\": null,\n        \"line1\": null,\n        \"state\": null,\n        \"postal_code\": null,\n        \"country_code\": null\n      },\n      \"can_debit\": true,\n      \"name\": null,\n      \"expiration_year\": 2016,\n      \"cvv\": \"xxx\",\n      \"is_verified\": true,\n      \"avs_result\": null,\n      \"can_credit\": false,\n      \"href\": \"/cards/CC2EgnBGj2cUQjdQsFm0eHAc\",\n      \"created_at\": \"2014-08-28T18:08:40.613888Z\"\n    }\n  ],\n  \"meta\": {\n    \"last\": \"/cards?limit=10&offset=40\",\n    \"next\": \"/cards?limit=10&offset=10\",\n    \"href\": \"/cards?limit=10&offset=0\",\n    \"limit\": 10,\n    \"offset\": 0,\n    \"previous\": null,\n    \"total\": 50,\n    \"first\": \"/cards?limit=10&offset=0\"\n  },\n  \"links\": {\n    \"cards.customer\": \"/customers/{cards.customer}\",\n    \"cards.disputes\": \"/cards/{cards.id}/disputes\",\n    \"cards.card_holds\": \"/cards/{cards.id}/card_holds\",\n    \"cards.debits\": \"/cards/{cards.id}/debits\"\n  }\n}",
      "headers": {
        "Content-Type": "application/json",
        "Date": "Mon, 01 Dec 2014 10:13:24 GMT",
        "Server": "ngx_openresty/1.2.6.3",
        "X-Balanced-Revision": "1.1",
        "X-Balanced-Software-Build": "1.10.15",
        "Content-Length": "10703",
        "Connection": "keep-alive"
      },
      "status_code": 200,
      "type": "ok"
    }
  }
]