[
  {
    "request": {
      "body": "",
      "headers": {
        "Authorization": "Basic SECRET_KEY",
        "Accept": "application/vnd.api+json;revision=1.1"
      },
      "method": "get",
      "options": [],
      "url": "https://api.balancedpayments.com/customers?limit=10&offset=0"
    },
    "response": {
      "body": "{\n  \"customers\": [\n    {\n      \"name\": \"Jon Doe\",\n      \"links\": {\n        \"source\": null,\n        \"destination\": null\n      },\n      \"updated_at\": \"2014-12-05T17:57:16.848077Z\",\n      \"created_at\": \"2014-12-05T17:57:16.728143Z\",\n      \"dob_month\": null,\n      \"id\": \"CU7yBatB15XjrbXbv5f09WEl\",\n      \"phone\": null,\n      \"href\": \"/customers/CU7yBatB15XjrbXbv5f09WEl\",\n      \"merchant_status\": \"no-match\",\n      \"meta\": {\n        \"cool_guy\": \"true\"\n      },\n      \"dob_year\": null,\n      \"address\": {\n        \"city\": null,\n        \"line2\": null,\n        \"line1\": null,\n        \"state\": null,\n        \"postal_code\": null,\n        \"country_code\": null\n      },\n      \"business_name\": null,\n      \"ssn_last4\": null,\n      \"email\": null,\n      \"ein\": null\n    },\n    {\n      \"name\": \"Jon Doe\",\n      \"links\": {\n        \"source\": null,\n        \"destination\": null\n      },\n      \"updated_at\": \"2014-12-05T17:57:08.614483Z\",\n      \"created_at\": \"2014-12-05T17:57:08.491177Z\",\n      \"dob_month\": null,\n      \"id\": \"CU7pkyzEWSx5WtNhme4fGWwU\",\n      \"phone\": null,\n      \"href\": \"/customers/CU7pkyzEWSx5WtNhme4fGWwU\",\n      \"merchant_status\": \"no-match\",\n      \"meta\": {\n        \"cool_guy\": \"true\"\n      },\n      \"dob_year\": null,\n      \"address\": {\n        \"city\": null,\n        \"line2\": null,\n        \"line1\": null,\n        \"state\": null,\n        \"postal_code\": null,\n        \"country_code\": null\n      },\n      \"business_name\": null,\n      \"ssn_last4\": null,\n      \"email\": null,\n      \"ein\": null\n    },\n    {\n      \"name\": \"Jon Doe\",\n      \"links\": {\n        \"source\": null,\n        \"destination\": null\n      },\n      \"updated_at\": \"2014-11-23T15:58:44.356050Z\",\n      \"created_at\": \"2014-11-23T15:58:42.735524Z\",\n      \"dob_month\": null,\n      \"id\": \"CU3IumZFa8UKn8OdwZ8k5qEg\",\n      \"phone\": null,\n      \"href\": \"/customers/CU3IumZFa8UKn8OdwZ8k5qEg\",\n      \"merchant_status\": \"no-match\",\n      \"meta\": {\n        \"cool_guy\": \"true\"\n      },\n      \"dob_year\": null,\n      \"address\": {\n        \"city\": null,\n        \"line2\": null,\n        \"line1\": null,\n        \"state\": null,\n        \"postal_code\": null,\n        \"country_code\": null\n      },\n      \"business_name\": null,\n      \"ssn_last4\": null,\n      \"email\": \"jon@doe.com\",\n      \"ein\": null\n    },\n    {\n      \"name\": \"Jon Doe\",\n      \"links\": {\n        \"source\": null,\n        \"destination\": null\n      },\n      \"updated_at\": \"2014-11-23T15:55:11.092209Z\",\n      \"created_at\": \"2014-11-23T15:55:10.920767Z\",\n      \"dob_month\": null,\n      \"id\": \"CU7FkiOhNKm59UTrKe6iMCPK\",\n      \"phone\": null,\n      \"href\": \"/customers/CU7FkiOhNKm59UTrKe6iMCPK\",\n      \"merchant_status\": \"no-match\",\n      \"meta\": {\n        \"cool_guy\": \"true\"\n      },\n      \"dob_year\": null,\n      \"address\": {\n        \"city\": null,\n        \"line2\": null,\n        \"line1\": null,\n        \"state\": null,\n        \"postal_code\": null,\n        \"country_code\": null\n      },\n      \"business_name\": null,\n      \"ssn_last4\": null,\n      \"email\": null,\n      \"ein\": null\n    },\n    {\n      \"name\": \"Jon Doe\",\n      \"links\": {\n        \"source\": null,\n        \"destination\": null\n      },\n      \"updated_at\": \"2014-11-23T15:54:39.580483Z\",\n      \"created_at\": \"2014-11-23T15:54:39.457145Z\",\n      \"dob_month\": null,\n      \"id\": \"CU75W57XYRRMDBraMrwnqvTn\",\n      \"phone\": null,\n      \"href\": \"/customers/CU75W57XYRRMDBraMrwnqvTn\",\n      \"merchant_status\": \"no-match\",\n      \"meta\": {\n        \"cool_guy\": \"true\"\n      },\n      \"dob_year\": null,\n      \"address\": {\n        \"city\": null,\n        \"line2\": null,\n        \"line1\": null,\n        \"state\": null,\n        \"postal_code\": null,\n        \"country_code\": null\n      },\n      \"business_name\": null,\n      \"ssn_last4\": null,\n      \"email\": null,\n      \"ein\": null\n    },\n    {\n      \"name\": \"Jon Doe\",\n      \"links\": {\n        \"source\": null,\n        \"destination\": null\n      },\n      \"updated_at\": \"2014-11-23T15:53:52.349691Z\",\n      \"created_at\": \"2014-11-23T15:53:52.202242Z\",\n      \"dob_month\": null,\n      \"id\": \"CU6eMSWTTwBQxVpUWbrXQdrn\",\n      \"phone\": null,\n      \"href\": \"/customers/CU6eMSWTTwBQxVpUWbrXQdrn\",\n      \"merchant_status\": \"no-match\",\n      \"meta\": {\n        \"cool_guy\": \"true\"\n      },\n      \"dob_year\": null,\n      \"address\": {\n        \"city\": null,\n        \"line2\": null,\n        \"line1\": null,\n        \"state\": null,\n        \"postal_code\": null,\n        \"country_code\": null\n      },\n      \"business_name\": null,\n      \"ssn_last4\": null,\n      \"email\": null,\n      \"ein\": null\n    },\n    {\n      \"name\": \"Jon Doe\",\n      \"links\": {\n        \"source\": null,\n        \"destination\": null\n      },\n      \"updated_at\": \"2014-11-23T15:52:57.662034Z\",\n      \"created_at\": \"2014-11-23T15:52:57.519399Z\",\n      \"dob_month\": null,\n      \"id\": \"CU5fi4CQtQgFZTXEeqxxnVg4\",\n      \"phone\": null,\n      \"href\": \"/customers/CU5fi4CQtQgFZTXEeqxxnVg4\",\n      \"merchant_status\": \"no-match\",\n      \"meta\": {\n        \"cool_guy\": \"true\"\n      },\n      \"dob_year\": null,\n      \"address\": {\n        \"city\": null,\n        \"line2\": null,\n        \"line1\": null,\n        \"state\": null,\n        \"postal_code\": null,\n        \"country_code\": null\n      },\n      \"business_name\": null,\n      \"ssn_last4\": null,\n      \"email\": null,\n      \"ein\": null\n    },\n    {\n      \"name\": \"Jon Doe\",\n      \"links\": {\n        \"source\": null,\n        \"destination\": null\n      },\n      \"updated_at\": \"2014-11-23T15:52:43.594898Z\",\n      \"created_at\": \"2014-11-23T15:52:43.440259Z\",\n      \"dob_month\": null,\n      \"id\": \"CU4Zs1k9AsX5oX7SCFfgLrAV\",\n      \"phone\": null,\n      \"href\": \"/customers/CU4Zs1k9AsX5oX7SCFfgLrAV\",\n      \"merchant_status\": \"no-match\",\n      \"meta\": {\n        \"cool_guy\": \"true\"\n      },\n      \"dob_year\": null,\n      \"address\": {\n        \"city\": null,\n        \"line2\": null,\n        \"line1\": null,\n        \"state\": null,\n        \"postal_code\": null,\n        \"country_code\": null\n      },\n      \"business_name\": null,\n      \"ssn_last4\": null,\n      \"email\": null,\n      \"ein\": null\n    },\n    {\n      \"name\": \"Jon Doe\",\n      \"links\": {\n        \"source\": null,\n        \"destination\": null\n      },\n      \"updated_at\": \"2014-11-23T15:51:14.997774Z\",\n      \"created_at\": \"2014-11-23T15:51:14.824689Z\",\n      \"dob_month\": null,\n      \"id\": \"CU3nMYJzczml062UyUtRjih2\",\n      \"phone\": null,\n      \"href\": \"/customers/CU3nMYJzczml062UyUtRjih2\",\n      \"merchant_status\": \"no-match\",\n      \"meta\": {\n        \"cool_guy\": \"true\"\n      },\n      \"dob_year\": null,\n      \"address\": {\n        \"city\": null,\n        \"line2\": null,\n        \"line1\": null,\n        \"state\": null,\n        \"postal_code\": null,\n        \"country_code\": null\n      },\n      \"business_name\": null,\n      \"ssn_last4\": null,\n      \"email\": null,\n      \"ein\": null\n    },\n    {\n      \"name\": \"Jon Doe\",\n      \"links\": {\n        \"source\": null,\n        \"destination\": null\n      },\n      \"updated_at\": \"2014-11-23T15:49:46.457381Z\",\n      \"created_at\": \"2014-11-23T15:49:46.324464Z\",\n      \"dob_month\": null,\n      \"id\": \"CU1MfwZQbMTzClFxVDnlsiOh\",\n      \"phone\": null,\n      \"href\": \"/customers/CU1MfwZQbMTzClFxVDnlsiOh\",\n      \"merchant_status\": \"no-match\",\n      \"meta\": {\n        \"cool_guy\": \"true\"\n      },\n      \"dob_year\": null,\n      \"address\": {\n        \"city\": null,\n        \"line2\": null,\n        \"line1\": null,\n        \"state\": null,\n        \"postal_code\": null,\n        \"country_code\": null\n      },\n      \"business_name\": null,\n      \"ssn_last4\": null,\n      \"email\": null,\n      \"ein\": null\n    }\n  ],\n  \"meta\": {\n    \"last\": \"/customers?limit=10&offset=10\",\n    \"next\": \"/customers?limit=10&offset=10\",\n    \"href\": \"/customers?limit=10&offset=0\",\n    \"limit\": 10,\n    \"offset\": 0,\n    \"previous\": null,\n    \"total\": 15,\n    \"first\": \"/customers?limit=10&offset=0\"\n  },\n  \"links\": {\n    \"customers.destination\": \"/resources/{customers.destination}\",\n    \"customers.external_accounts\": \"/customers/{customers.id}/external_accounts\",\n    \"customers.bank_accounts\": \"/customers/{customers.id}/bank_accounts\",\n    \"customers.disputes\": \"/customers/{customers.id}/disputes\",\n    \"customers.transactions\": \"/customers/{customers.id}/transactions\",\n    \"customers.refunds\": \"/customers/{customers.id}/refunds\",\n    \"customers.orders\": \"/customers/{customers.id}/orders\",\n    \"customers.source\": \"/resources/{customers.source}\",\n    \"customers.card_holds\": \"/customers/{customers.id}/card_holds\",\n    \"customers.debits\": \"/customers/{customers.id}/debits\",\n    \"customers.cards\": \"/customers/{customers.id}/cards\",\n    \"customers.reversals\": \"/customers/{customers.id}/reversals\",\n    \"customers.credits\": \"/customers/{customers.id}/credits\",\n    \"customers.accounts\": \"/customers/{customers.id}/accounts\"\n  }\n}",
      "headers": {
        "Content-Type": "application/json",
        "Content-Length": "8633",
        "Connection": "keep-alive"
      },
      "status_code": 200,
      "type": "ok"
    }
  }
]